{
  "colors primary": {
    "primary-300": "#ededfc",
    "primary-400": "#b5b5f3",
    "primary-500": "#918ae5",
    "primary-900": "#090066"
  },
  "colors secondary": {
    "secondary-300": "#e9f0f7",
    "secondary-400": "#bcd1e7",
    "secondary-500": "#62aaf2",
    "secondary-800": "#0e59a5"
  },
  "colors additional": {
    "black": "#252527",
    "brown-300": "#faefe1",
    "brown-500": "#cc9951",
    "brown-900": "#663c00",
    "green-100": "#f7fae5",
    "green-300": "#f2f7d7",
    "green-500": "#aacc00",
    "green-900": "#556600",
    "white": "#ffffff"
  },
  "color neutral": {
    "neutral 100": "#fafafa",
    "neutral 200": "#f0f0f2",
    "neutral 300": "#d6d6db",
    "neutral 400": "#bbbbc4",
    "neutral 600": "#9f9fac",
    "neutral 700": "#6b6b7b",
    "neutral 800": "#535360"
  },
  "color push": {
    "push": "#00a300",
    "push transparent": "(0, 0.63921569, 0, 0.1000)"
  },
  "colors system messages": {
    "negative-200": "#f9e1e1",
    "negative-500": "#dd4747",
    "negative-900": "#741515",
    "positive-200": "#d4f7da",
    "positive-500": "#007e28",
    "positive-900": "#004d18",
    "warning-200": "#fceede",
    "warning-500": "#ec9024",
    "warning-900": "#9b5a0e"
  },
  "colors overlay": {
    "lightbox background": "(0.07843137, 0.06666667, 0.2039215, 0.9500)",
    "overlay background": "(0.07843137, 0.06666667, 0.2039215, 0.2500)"
  }
}